<?xml version="1.0" encoding="utf-8"?>
<!-- Generator: Adobe Illustrator 17.0.0, SVG Export Plug-In . SVG Version: 6.00 Build 0)  -->
<!DOCTYPE svg PUBLIC "-//W3C//DTD SVG 1.1//EN" "http://www.w3.org/Graphics/SVG/1.1/DTD/svg11.dtd">
<svg version="1.1" id="Layer_1" xmlns="http://www.w3.org/2000/svg" xmlns:xlink="http://www.w3.org/1999/xlink" x="0px" y="0px"
	 width="100%" height="100%" viewBox="0 0 19.004 4.151" enable-background="new 0 0 19.004 4.151" xml:space="preserve">
<polygon fill="#FFFFFF" points="0,0 0,4.151 0.849,4.151 0.849,0.94 6.983,0.94 6.983,4.137 7.799,4.137 7.799,0 "/>
<polygon fill="#FFFFFF" points="18.126,0 18.126,3.261 11.974,3.261 11.974,0 11.095,0 11.095,4.138 19.004,4.138 19.004,0 "/>
<rect x="9.008" y="0" fill="#FFFFFF" width="0.878" height="4.133"/>
</svg>
